{
   "total_reviews":"10",
   "reviews":[
      {
         "user":{
            "user_id":1,
            "user_name":"Emma Lowe",
            "user_pic":"https://randomuser.me/api/portraits/women/1.jpg",
            "category":"Partially Blind"
         },
         "review":{
            "posted_at":"6 days ago",
            "review_text":"Lorem ipsum dolor sit amet, consectetur adipiscing elit, sed do eiusmod tempor incididunt ut labore et dolore magna aliqua. Ut enim ad minim veniam, quis nostrud exercitation ullamco laboris nisi ut aliquip ex ea commodo consequat. Duis aute irure dolor in reprehenderit in voluptate velit esse cillum dolore eu fugiat nulla pariatur. Excepteur sint occaecat cupidatat non proident, sunt in culpa qui officia deserunt mollit anim id est laborum.",
            "review_pics":[
               {
                  "pic_url":"https://i.picsum.photos/id/194/500/500.jpg?hmac=om5k-9p7KzqQ0sWf3tM_n3JP05skQy3Cw84sBidX7iw"
               },
               {
                  "pic_url":"https://i.picsum.photos/id/533/500/500.jpg?hmac=4BJ0voQbGI2oEIjU41Zmxi6QMikwzSvRXJl7F4cQzIo"
               },
               {
                  "pic_url":"https://i.picsum.photos/id/37/500/500.jpg?hmac=lzRnNBxtKpvY781uybLQr9mfijZxiqHV8GF_wGkijtY"
               }
            ]
         }
      },
      {
         "user":{
            "user_id":1,
            "user_name":"Jill Durham",
            "user_pic":"https://randomuser.me/api/portraits/men/2.jpg",
            "category":"Partially Blind"
         },
         "review":{
            "posted_at":"5 days ago",
            "review_text":"Lorem ipsum dolor sit amet, consectetur adipiscing elit, sed do eiusmod tempor incididunt ut labore et dolore magna aliqua. Ut enim ad minim veniam, quis nostrud exercitation ullamco laboris nisi ut aliquip ex ea commodo consequat. Duis aute irure dolor in reprehenderit in voluptate velit esse cillum dolore eu fugiat nulla pariatur. Excepteur sint occaecat cupidatat non proident, sunt in culpa qui officia deserunt mollit anim id est laborum.",
            "review_pics":[
               {
                  "pic_url":"https://i.picsum.photos/id/40/500/500.jpg?hmac=4L40XQ64A-bQmM5jC9JfDiwj5J9_M14Mj9Kxz836pXE"
               },
               {
                  "pic_url":"https://i.picsum.photos/id/215/500/500.jpg?hmac=xW-NB3Xham1HVDpfXpgehwrST8aEKQBzSscMPXGAyQw"
               }
            ]
         }
      },
      {
         "user":{
            "user_id":1,
            "user_name":"Karishma Prosser",
            "user_pic":"https://randomuser.me/api/portraits/women/3.jpg",
            "category":"Partially Blind"
         },
         "review":{
            "posted_at":"4 days ago",
            "review_text":"Lorem ipsum dolor sit amet, consectetur adipiscing elit, sed do eiusmod tempor incididunt ut labore et dolore magna aliqua. Ut enim ad minim veniam, quis nostrud exercitation ullamco laboris nisi ut aliquip ex ea commodo consequat. Duis aute irure dolor in reprehenderit in voluptate velit esse cillum dolore eu fugiat nulla pariatur. Excepteur sint occaecat cupidatat non proident, sunt in culpa qui officia deserunt mollit anim id est laborum.",
            "review_pics":[
               {
                  "pic_url":"https://i.picsum.photos/id/386/500/500.jpg?hmac=99Q6Mo_u0joVqPt_epEcRrUP2h6gbEndezUX827u1Is"
               }
            ]
         }
      },
      {
         "user":{
            "user_id":1,
            "user_name":"Ava-May Kerr",
            "user_pic":"https://randomuser.me/api/portraits/women/4.jpg",
            "category":"Partially Blind"
         },
         "review":{
            "posted_at":"6 days ago",
            "review_text":"Lorem ipsum dolor sit amet, consectetur adipiscing elit, sed do eiusmod tempor incididunt ut labore et dolore magna aliqua. Ut enim ad minim veniam, quis nostrud exercitation ullamco laboris nisi ut aliquip ex ea commodo consequat. Duis aute irure dolor in reprehenderit in voluptate velit esse cillum dolore eu fugiat nulla pariatur. Excepteur sint occaecat cupidatat non proident, sunt in culpa qui officia deserunt mollit anim id est laborum.",
            "review_pics":[
               {
                  "pic_url":"https://i.picsum.photos/id/24/500/500.jpg?hmac=IrckVl161OndG32bg5DFgk7VPfth2X89_pj659jyzEw"
               },
               {
                  "pic_url":"https://i.picsum.photos/id/529/500/500.jpg?hmac=l7gBrfxh6_pjudiuoMRseLcWbR7EjKnx6sFMjpFoIzM"
               },
               {
                  "pic_url":"https://i.picsum.photos/id/368/500/500.jpg?hmac=mS9ABneRrvrDwACK12cmwbPwo4iPtj_yOj9AoiYBADE"
               }
            ]
         }
      },
      {
         "user":{
            "user_id":1,
            "user_name":"Drake Keenan",
            "user_pic":"https://randomuser.me/api/portraits/men/5.jpg",
            "category":"Partially Blind"
         },
         "review":{
            "posted_at":"6 days ago",
            "review_text":"Lorem ipsum dolor sit amet, consectetur adipiscing elit, sed do eiusmod tempor incididunt ut labore et dolore magna aliqua. Ut enim ad minim veniam, quis nostrud exercitation ullamco laboris nisi ut aliquip ex ea commodo consequat. Duis aute irure dolor in reprehenderit in voluptate velit esse cillum dolore eu fugiat nulla pariatur. Excepteur sint occaecat cupidatat non proident, sunt in culpa qui officia deserunt mollit anim id est laborum.",
            "review_pics":[
               {
                  "pic_url":"https://i.picsum.photos/id/688/500/500.jpg?hmac=stjQsy-9wV7f2dC3hMwrQnN-v4IQDqqcuY3XAr-elOc"
               },
               {
                  "pic_url":"https://i.picsum.photos/id/853/500/500.jpg?hmac=qW6A-LWIFa-PSXv_3P_0grNjWhG-mJt0c4HEo9KBoYo"
               },
               {
                  "pic_url":"https://i.picsum.photos/id/793/500/500.jpg?hmac=yWqdylJuP1XPGkbnmKzLlxSGnEzPNvIb550BLgT_8ug"
               }
            ]
         }
      },
      {
         "user":{
            "user_id":1,
            "user_name":"Kobie Donald",
            "user_pic":"https://randomuser.me/api/portraits/men/6.jpg",
            "category":"Partially Blind"
         },
         "review":{
            "posted_at":"6 days ago",
            "review_text":"Lorem ipsum dolor sit amet, consectetur adipiscing elit, sed do eiusmod tempor incididunt ut labore et dolore magna aliqua. Ut enim ad minim veniam, quis nostrud exercitation ullamco laboris nisi ut aliquip ex ea commodo consequat. Duis aute irure dolor in reprehenderit in voluptate velit esse cillum dolore eu fugiat nulla pariatur. Excepteur sint occaecat cupidatat non proident, sunt in culpa qui officia deserunt mollit anim id est laborum.",
            "review_pics":[
               {
                  "pic_url":"https://i.picsum.photos/id/1079/500/500.jpg?hmac=iAZKAEg5Ja-3uQWuHj6jLDC31WsSScvEAy8F_R7BtBs"
               },
               {
                  "pic_url":"https://i.picsum.photos/id/3/500/500.jpg?hmac=1_eo6kK7TmgHDifRp6uCfrJgr7CctEIJZSez1KqbmJg"
               },
               {
                  "pic_url":"https://i.picsum.photos/id/614/500/500.jpg?hmac=-ffLLRGJe0w32ZJspxBIcJFkB02j1_nZ6lXCI_-iGLM"
               }
            ]
         }
      },
      {
         "user":{
            "user_id":1,
            "user_name":"Ansh Berger",
            "user_pic":"https://randomuser.me/api/portraits/men/7.jpg",
            "category":"Partially Blind"
         },
         "review":{
            "posted_at":"6 days ago",
            "review_text":"Lorem ipsum dolor sit amet, consectetur adipiscing elit, sed do eiusmod tempor incididunt ut labore et dolore magna aliqua. Ut enim ad minim veniam, quis nostrud exercitation ullamco laboris nisi ut aliquip ex ea commodo consequat. Duis aute irure dolor in reprehenderit in voluptate velit esse cillum dolore eu fugiat nulla pariatur. Excepteur sint occaecat cupidatat non proident, sunt in culpa qui officia deserunt mollit anim id est laborum.",
            "review_pics":[
               {
                  "pic_url":"https://i.picsum.photos/id/627/500/500.jpg?hmac=pJavUpnYOuoYI0JaFW-F2hqOV9h3yrAtuRmjVQhSl3M"
               },
               {
                  "pic_url":"https://i.picsum.photos/id/351/500/500.jpg?hmac=J7s6RnrqH06rEUE34dUZrVr9cKD5SfBgwZ7cWsJCzYA"
               },
               {
                  "pic_url":"https://i.picsum.photos/id/360/500/500.jpg?hmac=3fvPpl_8_Y4RdnU4UJiD3xAYDNpQ4eZnAbtNBUw6d-w"
               }
            ]
         }
      },
      {
         "user":{
            "user_id":1,
            "user_name":"Marlene Keeling",
            "user_pic":"https://randomuser.me/api/portraits/women/8.jpg",
            "category":"Partially Blind"
         },
         "review":{
            "posted_at":"6 days ago",
            "review_text":"Lorem ipsum dolor sit amet, consectetur adipiscing elit, sed do eiusmod tempor incididunt ut labore et dolore magna aliqua. Ut enim ad minim veniam, quis nostrud exercitation ullamco laboris nisi ut aliquip ex ea commodo consequat. Duis aute irure dolor in reprehenderit in voluptate velit esse cillum dolore eu fugiat nulla pariatur. Excepteur sint occaecat cupidatat non proident, sunt in culpa qui officia deserunt mollit anim id est laborum.",
            "review_pics":[
               {
                  "pic_url":"https://i.picsum.photos/id/558/500/500.jpg?hmac=K6sxSbWmoFNpi5_XrJZSaqNy0bktrWquGRzBxFCCaUk"
               },
               {
                  "pic_url":"https://i.picsum.photos/id/663/500/500.jpg?hmac=MYoeZl4iEyz372-M_avH2eqJ5yNJRKMl0K2lTwbb5n0"
               }
            ]
         }
      },
      {
         "user":{
            "user_id":1,
            "user_name":"Kavita Byers",
            "user_pic":"https://randomuser.me/api/portraits/women/9.jpg",
            "category":"Partially Blind"
         },
         "review":{
            "posted_at":"6 days ago",
            "review_text":"Lorem ipsum dolor sit amet, consectetur adipiscing elit, sed do eiusmod tempor incididunt ut labore et dolore magna aliqua. Ut enim ad minim veniam, quis nostrud exercitation ullamco laboris nisi ut aliquip ex ea commodo consequat. Duis aute irure dolor in reprehenderit in voluptate velit esse cillum dolore eu fugiat nulla pariatur. Excepteur sint occaecat cupidatat non proident, sunt in culpa qui officia deserunt mollit anim id est laborum.",
            "review_pics":[
               {
                  "pic_url":"https://i.picsum.photos/id/157/500/500.jpg?hmac=lDejI7O-bmElCEbdMAKUJV9NKhja3C6sJLqvowyFATA"
               },
               {
                  "pic_url":"https://i.picsum.photos/id/268/500/500.jpg?hmac=r-0APcoPbU3x8RzPNFDB1dwGUSl2Uh4ybCV6dEKUvxo"
               },
               {
                  "pic_url":"https://i.picsum.photos/id/775/500/500.jpg?hmac=WoIRaRyc3N3Jkvk0GNfb0qFgdWBK6vLyu0DEw8t3B_Q"
               }
            ]
         }
      },
      {
         "user":{
            "user_id":1,
            "user_name":"Dorian Corrigan",
            "user_pic":"https://randomuser.me/api/portraits/men/10.jpg",
            "category":"Partially Blind"
         },
         "review":{
            "posted_at":"6 days ago",
            "review_text":"Lorem ipsum dolor sit amet, consectetur adipiscing elit, sed do eiusmod tempor incididunt ut labore et dolore magna aliqua. Ut enim ad minim veniam, quis nostrud exercitation ullamco laboris nisi ut aliquip ex ea commodo consequat. Duis aute irure dolor in reprehenderit in voluptate velit esse cillum dolore eu fugiat nulla pariatur. Excepteur sint occaecat cupidatat non proident, sunt in culpa qui officia deserunt mollit anim id est laborum.",
            "review_pics":[
               {
                  "pic_url":"https://i.picsum.photos/id/197/500/500.jpg?hmac=Wkybe1s_1ui7V5n9qGWOWyK3PCpCinm8wocgS4T4YF4"
               }
            ]
         }
      }
   ]
}